Lecture 10
…
---

# Supervised learning examples: Preliminaries

```r
mtcars <- mtcars %>% as_tibble()
mtcars
```

```
## # A tibble: 32 x 11
##      mpg   cyl  disp    hp  drat    wt  qsec    vs    am  gear  carb
##    <dbl> <dbl> <dbl> <dbl> <dbl> <dbl> <dbl> <dbl> <dbl> <dbl> <dbl>
##  1  21       6  160    110  3.9   2.62  16.5     0     1     4     4
##  2  21       6  160    110  3.9   2.88  17.0     0     1     4     4
##  3  22.8     4  108     93  3.85  2.32  18.6     1     1     4     1
##  4  21.4     6  258    110  3.08  3.22  19.4     1     0     3     1
##  5  18.7     8  360    175  3.15  3.44  17.0     0     0     3     2
##  6  18.1     6  225    105  2.76  3.46  20.2     1     0     3     1
##  7  14.3     8  360    245  3.21  3.57  15.8     0     0     3     4
##  8  24.4     4  147.    62  3.69  3.19  20       1     0     4     2
##  9  22.8     4  141.    95  3.92  3.15  22.9     1     0     4     2
## 10  19.2     6  168.   123  3.92  3.44  18.3     1     0     4     4
## # … with 22 more rows
```
…
---

# Supervised learning examples: Preliminaries

```r
carseats <- Carseats %>% as_tibble()
carseats
```

```
## # A tibble: 400 x 11
##    Sales CompPrice Income Advertising Population Price ShelveLoc   Age Education
##    <dbl>     <dbl>  <dbl>       <dbl>      <dbl> <dbl> <fct>     <dbl>     <dbl>
##  1  9.5        138     73          11        276   120 Bad          42        17
##  2 11.2        111     48          16        260    83 Good         65        10
##  3 10.1        113     35          10        269    80 Medium       59        12
##  4  7.4        117    100           4        466    97 Medium       55        14
##  5  4.15       141     64           3        340   128 Bad          38        13
##  6 10.8        124    113          13        501    72 Bad          78        16
##  7  6.63       115    105           0         45   108 Medium       71        15
##  8 11.8        136     81          15        425   120 Good         67        10
##  9  6.54       132    110           0        108   124 Medium       76        10
## 10  4.69       132    113           0        131   124 Medium       76        17
## # … with 390 more rows, and 2 more variables: Urban <fct>, US <fct>
```
…
